…
First, load the following libraries and data.

``` r
library(tidyverse)
library(nycflights13)
```

Look into the data.

``` r
df <- flights
df
```

    ## # A tibble: 336,776 × 19
    ##     year month   day dep_time sched_dep_time dep_delay arr_time sched_arr_time
    ##    <int> <int> <int>    <int>          <int>     <dbl>    <int>          <int>
    ##  1  2013     1     1      517            515         2      830            819
    ##  2  2013     1     1      533            529         4      850            830
    ##  3  2013     1     1      542            540         2      923            850
    ##  4  2013     1     1      544            545        -1     1004           1022
    ##  5  2013     1     1      554            600        -6      812            837
    ##  6  2013     1     1      554            558        -4      740            728
    ##  7  2013     1     1      555            600        -5      913            854
    ##  8  2013     1     1      557            600        -3      709            723
    ##  9  2013     1     1      557            600        -3      838            846
    ## 10  2013     1     1      558            600        -2      753            745
    ## # … with 336,766 more rows, and 11 more variables: arr_delay <dbl>,
    ## #   carrier <chr>, flight <int>, tailnum <chr>, origin <chr>, dest <chr>,
    ## #   air_time <dbl>, distance <dbl>, hour <dbl>, minute <dbl>, time_hour <dttm>
…
We can also filter the data. If we want to extract tail numbers of
flights which flew on June 2nd with UA with larger than 2000km,

``` r
df2 <- df %>%
  filter(carrier == "UA" & month == 6 & day == 2 & distance >= 2000) %>%
  select(tailnum)
df2
```

    ## # A tibble: 54 × 1
    ##    tailnum
    ##    <chr>  
    ##  1 N39463 
    ##  2 N555UA 
    ##  3 N488UA 
    ##  4 N78438 
    ##  5 N475UA 
    ##  6 N76517 
    ##  7 N467UA 
    ##  8 N818UA 
    ##  9 N508UA 
    ## 10 N39423 
    ## # … with 44 more rows
…
